…
el <- data.frame(from= c('a','b','b','c','d','d'),
                 to  = c('b','c','d','a','b','a'),
                 attr= c( 12, 6, 12 , 6 , 6 , 6 ))
(adj <- get_adjacency(el))
#> 4 x 4 sparse Matrix of class "dgCMatrix"
#>   a  b c  d
#> a . 12 .  .
#> b .  . 6 12
#> c 6  . .  .
#> d 6  6 .  .

(el_unweighted <- tibble::as_tibble(do.call(rbind, 
                        apply(el, 1, function(row) matrix(rep(row[1:2], each=as.integer(row[3])), ncol = 2))), 
                        .name_repair='minimal'))
#> # A tibble: 48 x 2
#>    ``    ``   
#>    <chr> <chr>
#>  1 a     b    
#>  2 a     b    
#>  3 a     b    
#>  4 a     b    
#>  5 a     b    
#>  6 a     b    
#>  7 a     b    
#>  8 a     b    
#>  9 a     b    
#> 10 a     b    
#> # … with 38 more rows
…
